Uso básico del paquete casen
…
## Intentando leer el archivo C:/Users/mvargass/Documents/casen/inst/extdata/casen_2017_los_rios.zip...

## Los metadatos de C:/Users/mvargass/Documents/casen/inst/extdata/casen_2017_los_rios.zip indican que el formato comprimido es adecuado, intentando leer...

## Resizing buffer to 32768.
## Resizing buffer to 65536.
## Resizing buffer to 131072.
## Resizing buffer to 262144.

## C:/Users/mvargass/Documents/casen/inst/extdata/casen_2017_los_rios.zip se pudo leer como tibble :-)

r14

## # A tibble: 10,172 x 8
##     expr  expc varstrat   varunit ytotcorh     sexo       comuna    pobreza
##    <dbl> <dbl>    <dbl>     <dbl>    <dbl> <dbl+lb>    <dbl+lbl>  <dbl+lbl>
##  1    50    53   141283   1.41e10   959765 2 [Muje~ 14101 [Vald~ 3 [No pob~
##  2    50    53   141283   1.41e10   959765 2 [Muje~ 14101 [Vald~ 3 [No pob~
##  3    50    53   141283   1.41e10   959765 2 [Muje~ 14101 [Vald~ 3 [No pob~
##  4   100   105   141283   1.41e10   283273 2 [Muje~ 14101 [Vald~ 2 [Pobres~
##  5   100   105   141283   1.41e10   283273 1 [Homb~ 14101 [Vald~ 2 [Pobres~
##  6   100   105   141283   1.41e10   283273 2 [Muje~ 14101 [Vald~ 2 [Pobres~
##  7   100   105   141283   1.41e10   353083 2 [Muje~ 14101 [Vald~ 3 [No pob~
##  8   100   105   141283   1.41e10   260000 2 [Muje~ 14101 [Vald~ 2 [Pobres~
##  9   100   105   141283   1.41e10   260000 2 [Muje~ 14101 [Vald~ 2 [Pobres~
## 10   100   105   141283   1.41e10   260000 1 [Homb~ 14101 [Vald~ 2 [Pobres~
## # ... with 10,162 more rows
…
# Promedio salarial por comuna y sexo
media_agrupada(r14, "ytotcorh", c("comuna","sexo"), "expc")

## Warning in check_nas(estimate): Con la agregacion proporcionada algunas observaciones tienen cero
##     grados de libertad, por lo que no se puede estimar la varianza, dando como
##     resultado algunos elementos no finitos.

## # A tibble: 24 x 7
##    comuna_etiqueta sexo_etiqueta comuna_codigo sexo_codigo media_ytotcorh
##    <chr>           <chr>         <chr>         <chr>                <dbl>
##  1 Valdivia        Mujer         14101         2                 1262564.
##  2 Valdivia        Hombre        14101         1                 1347409.
##  3 Corral          Hombre        14102         1                  713509.
##  4 Corral          Mujer         14102         2                  609975.
##  5 Lanco           Mujer         14103         2                  691757.
##  6 Lanco           Hombre        14103         1                  670080.
##  7 Los Lagos       Hombre        14104         1                  718525.
##  8 Los Lagos       Mujer         14104         2                  730578.
##  9 Máfil           Mujer         14105         2                  781906.
## 10 Máfil           Hombre        14105         1                  895474.
## # ... with 14 more rows, and 2 more variables: media_ytotcorh_inf <dbl>,
## #   media_ytotcorh_sup <dbl>
…
# Promedio salarial por comuna y sexo
mediana_agrupada(r14, "ytotcorh", c("comuna","sexo"), "expc")

## Warning in check_nas(estimate): Con la agregacion proporcionada algunas observaciones tienen cero
##     grados de libertad, por lo que no se puede estimar la varianza, dando como
##     resultado algunos elementos no finitos.

## # A tibble: 24 x 7
##    comuna_etiqueta sexo_etiqueta comuna_codigo sexo_codigo mediana_ytotcorh
##    <chr>           <chr>         <chr>         <chr>                  <dbl>
##  1 Valdivia        Mujer         14101         2                    900000 
##  2 Valdivia        Hombre        14101         1                    914376.
##  3 Corral          Hombre        14102         1                    596229 
##  4 Corral          Mujer         14102         2                    548684 
##  5 Lanco           Mujer         14103         2                    625511 
##  6 Lanco           Hombre        14103         1                    638530.
##  7 Los Lagos       Hombre        14104         1                    612354.
##  8 Los Lagos       Mujer         14104         2                    635936 
##  9 Máfil           Mujer         14105         2                    666300 
## 10 Máfil           Hombre        14105         1                    754550 
## # ... with 14 more rows, and 2 more variables: mediana_ytotcorh_inf <dbl>,
## #   mediana_ytotcorh_sup <dbl>
…
