Uso básico del paquete casen • casen
…
## Intentando leer el archivo C:/Users/mvargass/AppData/Local/Temp/RtmpcN85LV/temp_libpatha0cc568955e4/casen/extdata/casen_2017_los_rios.zip...

## Los metadatos de C:/Users/mvargass/AppData/Local/Temp/RtmpcN85LV/temp_libpatha0cc568955e4/casen/extdata/casen_2017_los_rios.zip indican que el formato comprimido es adecuado, intentando leer...

## Resizing buffer to 32768.
## Resizing buffer to 65536.
## Resizing buffer to 131072.
## Resizing buffer to 262144.

## C:/Users/mvargass/AppData/Local/Temp/RtmpcN85LV/temp_libpatha0cc568955e4/casen/extdata/casen_2017_los_rios.zip se pudo leer como tibble :-)

r14

## # A tibble: 10,172 x 7
##     expc varstrat   varunit ytotcorh      sexo        comuna        pobreza
##    <dbl>    <dbl>     <dbl>    <dbl> <dbl+lbl>     <dbl+lbl>      <dbl+lbl>
##  1    53   141283   1.41e10   959765 2 [Mujer] 14101 [Valdi~ 3 [No pobres] 
##  2    53   141283   1.41e10   959765 2 [Mujer] 14101 [Valdi~ 3 [No pobres] 
##  3    53   141283   1.41e10   959765 2 [Mujer] 14101 [Valdi~ 3 [No pobres] 
##  4   105   141283   1.41e10   283273 2 [Mujer] 14101 [Valdi~ 2 [Pobres no ~
##  5   105   141283   1.41e10   283273 1 [Hombr~ 14101 [Valdi~ 2 [Pobres no ~
##  6   105   141283   1.41e10   283273 2 [Mujer] 14101 [Valdi~ 2 [Pobres no ~
##  7   105   141283   1.41e10   353083 2 [Mujer] 14101 [Valdi~ 3 [No pobres] 
##  8   105   141283   1.41e10   260000 2 [Mujer] 14101 [Valdi~ 2 [Pobres no ~
##  9   105   141283   1.41e10   260000 2 [Mujer] 14101 [Valdi~ 2 [Pobres no ~
## 10   105   141283   1.41e10   260000 1 [Hombr~ 14101 [Valdi~ 2 [Pobres no ~
## # ... with 10,162 more rows
…
Medidas de tendencia central con diseño complejo

La función estadistica_descriptiva() toma en cuenta el diseño complejo y los grados de libertad. Puedo agrupar por una o más variables y la función entrega, además del promedio, el intervalo de confianza.

Importante: El conjunto de datos r14 se incluye con este software para efectos de mostrar el uso de las funciones, la encuesta CASEN no asegura representatividad a nivel comunal.

# Media, mediana y percentil 70
media_agrupada(r14, "ytotcorh", c("comuna", "sexo"), "expc")

## Warning in check_nas(estimate): Con la agregacion proporcionada algunas observaciones tienen cero
##     grados de libertad, por lo que no se puede estimar la varianza, dando como
##     resultado algunos elementos no finitos.

## # A tibble: 24 x 7
##    comuna_etiqueta sexo_etiqueta comuna_codigo sexo_codigo media_ytotcorh
##    <chr>           <chr>         <chr>         <chr>                <dbl>
##  1 Valdivia        Mujer         14101         2                 1262564.
##  2 Valdivia        Hombre        14101         1                 1347409.
##  3 Corral          Hombre        14102         1                  713509.
##  4 Corral          Mujer         14102         2                  609975.
##  5 Lanco           Mujer         14103         2                  691757.
##  6 Lanco           Hombre        14103         1                  670080.
##  7 Los Lagos       Hombre        14104         1                  718525.
##  8 Los Lagos       Mujer         14104         2                  730578.
##  9 Máfil           Mujer         14105         2                  781906.
## 10 Máfil           Hombre        14105         1                  895474.
## # ... with 14 more rows, and 2 more variables: media_ytotcorh_inf <dbl>,
## #   media_ytotcorh_sup <dbl>

mediana_agrupada(r14, "ytotcorh", c("comuna", "sexo"), "expc")

## Warning in check_nas(estimate): Con la agregacion proporcionada algunas observaciones tienen cero
##     grados de libertad, por lo que no se puede estimar la varianza, dando como
##     resultado algunos elementos no finitos.

## # A tibble: 24 x 7
##    comuna_etiqueta sexo_etiqueta comuna_codigo sexo_codigo mediana_ytotcorh
##    <chr>           <chr>         <chr>         <chr>                  <dbl>
##  1 Valdivia        Mujer         14101         2                    900000 
##  2 Valdivia        Hombre        14101         1                    914376.
##  3 Corral          Hombre        14102         1                    596229 
##  4 Corral          Mujer         14102         2                    548684 
##  5 Lanco           Mujer         14103         2                    625511 
##  6 Lanco           Hombre        14103         1                    638530.
##  7 Los Lagos       Hombre        14104         1                    612354.
##  8 Los Lagos       Mujer         14104         2                    635936 
##  9 Máfil           Mujer         14105         2                    666300 
## 10 Máfil           Hombre        14105         1                    754550 
## # ... with 14 more rows, and 2 more variables: mediana_ytotcorh_inf <dbl>,
## #   mediana_ytotcorh_sup <dbl>

percentiles_agrupados(r14, "ytotcorh", c("comuna", "sexo"), "expc")

## Warning in check_nas(estimate): Con la agregacion proporcionada algunas observaciones tienen cero
##     grados de libertad, por lo que no se puede estimar la varianza, dando como
##     resultado algunos elementos no finitos.

## # A tibble: 24 x 7
##    percentil comuna_etiqueta sexo_etiqueta comuna_codigo sexo_codigo
##        <dbl> <chr>           <chr>         <chr>         <chr>      
##  1       0.7 Valdivia        Mujer         14101         2          
##  2       0.7 Valdivia        Hombre        14101         1          
##  3       0.7 Corral          Hombre        14102         1          
##  4       0.7 Corral          Mujer         14102         2          
##  5       0.7 Lanco           Mujer         14103         2          
##  6       0.7 Lanco           Hombre        14103         1          
##  7       0.7 Los Lagos       Hombre        14104         1          
##  8       0.7 Los Lagos       Mujer         14104         2          
##  9       0.7 Máfil           Mujer         14105         2          
## 10       0.7 Máfil           Hombre        14105         1          
## # ... with 14 more rows, and 2 more variables: mediana_ytotcorh <dbl>,
## #   mediana_ytotcorh_err_est <dbl>
…
##  3 comuna~   -621449.        132259.         -4.70 1.79e- 5    -885439.
##  4 comuna~   -579666.        125585.         -4.62 2.39e- 5    -830335.
##  5 comuna~   -465695.        134021.         -3.47 1.00e- 3    -733203.
##  6 comuna~   -532944.        163291.         -3.26 1.89e- 3    -858874.
##  7 comuna~   -605114.        135751.         -4.46 4.12e- 5    -876074.
##  8 comuna~   -645983.        125267.         -5.16 3.53e- 6    -896017.
##  9 comuna~   -525886.        128681.         -4.09 1.43e- 4    -782734.
## 10 comuna~   -532511.        136537.         -3.90 2.64e- 4    -805040.
## 11 comuna~   -584849.        130485.         -4.48 3.79e- 5    -845299.
## 12 comuna~   -560813.        130805.         -4.29 7.35e- 5    -821901.
## 13 sexoMu~    -55931.         20067.         -2.79 7.28e- 3     -95984.
## # ... with 1 more variable: cota_sup_ic <dbl>
## 
## $prediccion
## # A tibble: 10,172 x 10
##    ytotcorh comuna sexo  pesos_x valor_ajustado residuo sombrero  sigma
##       <dbl> <fct>  <fct>   <dbl>          <dbl>   <dbl>    <dbl>  <dbl>
##  1   959765 Valdi~ Mujer    1.45       1276029. -3.81e5 0.000447 1.10e6
##  2   959765 Valdi~ Mujer    1.45       1276029. -3.81e5 0.000447 1.10e6
##  3   959765 Valdi~ Mujer    1.45       1276029. -3.81e5 0.000447 1.10e6
##  4   283273 Valdi~ Mujer    2.88       1276029. -1.68e6 0.000885 1.10e6
##  5   283273 Valdi~ Homb~    2.88       1331959. -1.78e6 0.000963 1.10e6
##  6   283273 Valdi~ Mujer    2.88       1276029. -1.68e6 0.000885 1.10e6
##  7   353083 Valdi~ Mujer    2.88       1276029. -1.57e6 0.000885 1.10e6
##  8   260000 Valdi~ Mujer    2.88       1276029. -1.72e6 0.000885 1.10e6
##  9   260000 Valdi~ Mujer    2.88       1276029. -1.72e6 0.000885 1.10e6
## 10   260000 Valdi~ Homb~    2.88       1331959. -1.82e6 0.000963 1.10e6
## # ... with 10,162 more rows, and 2 more variables: cooks <dbl>,
## #   .stdresiduo <dbl>
…
