Sub-conjunto CASEN 2017 — casen_2017_los_rios • casen
…
    comuna
comuna

    pobreza
situacion de pobreza por ingresos

    Source

    Elaboracion propia con base en datos de Ministerio de Desarrollo Social (MDS).

    Examples

casen_2017_los_rios
#> # A tibble: 8,055 × 7
#>     expc varstrat     varunit ytotcorh       sexo           comuna       pobreza
#>    <dbl>    <dbl>       <dbl>    <dbl>  <dbl+lbl>        <dbl+lbl>     <dbl+lbl>
#>  1    53   141283 14128301184   959765 2 [Mujer]  14101 [Valdivia] 3 [No pobres]
#>  2    53   141283 14128301184   959765 2 [Mujer]  14101 [Valdivia] 3 [No pobres]
#>  3    53   141283 14128301184   959765 2 [Mujer]  14101 [Valdivia] 3 [No pobres]
#>  4   105   141283 14128301184   283273 2 [Mujer]  14101 [Valdivia] 2 [Pobres no…
#>  5   105   141283 14128301184   283273 1 [Hombre] 14101 [Valdivia] 2 [Pobres no…
#>  6   105   141283 14128301184   283273 2 [Mujer]  14101 [Valdivia] 2 [Pobres no…
#>  7   105   141283 14128301184   353083 2 [Mujer]  14101 [Valdivia] 3 [No pobres]
#>  8   105   141283 14128301184   260000 2 [Mujer]  14101 [Valdivia] 2 [Pobres no…
#>  9   105   141283 14128301184   260000 2 [Mujer]  14101 [Valdivia] 2 [Pobres no…
#> 10   105   141283 14128301184   260000 1 [Hombre] 14101 [Valdivia] 2 [Pobres no…
#> # … with 8,045 more rows
…
